{
  "username": "asse@hindawi.com",
  "email": "asse@hindawi.com",
  "firstName": "AssociateEditorTest",
  "lastName": "associateEditor",
  "affiliation": "Automatic checks",
  "country": "Australia",
  "title": "Professor"
}