{
  "username": "ripe@hindawi.com",
  "email": "ripe@hindawi.com",
  "firstName": "ResearchIntegrityPerson",
  "lastName": "researchIntegrityPerson",
  "affiliation": "Automatic checks",
  "country": "Australia",
  "title": "Professor",
  "isRipe": true
}